%YAML 1.1
%TAG !u! tag:unity3d.com,2011:
--- !u!1045 &1
EditorBuildSettings:
  m_ObjectHideFlags: 0
  serializedVersion: 2
  m_Scenes:
  - enabled: 1
    path: Assets/Scenes/Intro.unity
    guid: 291aa497a1db49a4bb2bdfa7ad9b2e35
  - enabled: 1
    path: Assets/Scenes/Sheep.unity
    guid: 2cda990e2423bbf4892e6590ba056729
  - enabled: 1
    path: Assets/Scenes/Outro.unity
    guid: c731b09cbbc0e7847b7faefb65556c5c
  m_configObjects: {}
